{
  "kind": "Deployment",
  "apiVersion": "apps/v1",
  "metadata": {
    "name": "test",
    "namespace": "tool-test",
    "labels": {
      "app.kubernetes.io/component": "web",
      "app.kubernetes.io/managed-by": "webservice",
      "toolforge": "tool",
      "name": "test",
      "toolforge.org/mount-storage": "all"
    }
  },
  "spec": {
    "replicas": 1,
    "selector": {
      "matchLabels": {
        "app.kubernetes.io/component": "web",
        "app.kubernetes.io/managed-by": "webservice"
      }
    },
    "template": {
      "metadata": {
        "labels": {
          "app.kubernetes.io/component": "web",
          "app.kubernetes.io/managed-by": "webservice",
          "toolforge": "tool",
          "name": "test",
          "toolforge.org/mount-storage": "all"
        },
        "annotations": {
          "toolforge.org/started-at": "sometime"
        }
      },
      "spec": {
        "securityContext": {
          "fsGroup": 52503,
          "runAsGroup": 52503,
          "runAsNonRoot": true,
          "runAsUser": 52503,
          "seccompProfile": {
            "type": "RuntimeDefault"
          }
        },
        "containers": [
          {
            "name": "webservice",
            "image": "docker-registry.tools.wmflabs.org/toolforge-php74-sssd-web:latest",
            "command": [
              "/usr/bin/webservice-runner",
              "--type",
              "lighttpd-plain",
              "--port",
              "8000"
            ],
            "ports": [
              {
                "name": "http",
                "containerPort": 8000,
                "protocol": "TCP"
              }
            ],
            "workingDir": "/data/project/test/",
            "resources": {
              "limits": {
                "memory": "512Mi",
                "cpu": "1"
              },
              "requests": {
                "memory": "256Mi",
                "cpu": "0.5"
              }
            },
            "tty": false,
            "stdin": false,
            "securityContext": {
              "allowPrivilegeEscalation": false,
              "capabilities": {
                "drop": [
                  "ALL"
                ]
              },
              "privileged": false,
              "readOnlyRootFilesystem": false,
              "runAsGroup": 52503,
              "runAsNonRoot": true,
              "runAsUser": 52503
            },
            "startupProbe": {
              "tcpSocket": {
                "port": "http"
              },
              "initialDelaySeconds": 0,
              "periodSeconds": 1,
              "failureThreshold": 120
            },
            "livenessProbe": {
              "tcpSocket": {
                "port": "http"
              },
              "initialDelaySeconds": 0,
              "periodSeconds": 10,
              "failureThreshold": 3
            }
          }
        ]
      }
    }
  }
}
